%YAML 1.1
%TAG !u! tag:unity3d.com,2011:
--- !u!1045 &1
EditorBuildSettings:
  m_ObjectHideFlags: 0
  serializedVersion: 2
  m_Scenes:
  - enabled: 1
    path: Assets/Scenes/MenuScene.unity
    guid: f196f6baac7efe1458a58251a7540f66
  - enabled: 1
    path: Assets/Scenes/Rastreamento.unity
    guid: d8920d98d5ce7c6498ee1dd356d16af4
  - enabled: 1
    path: Assets/Scenes/Roulette.unity
    guid: 24ddeb99812d3f341ad77785668e42ed
  m_configObjects: {}
