%YAML 1.1
%TAG !u! tag:unity3d.com,2011:
--- !u!78 &1
TagManager:
  serializedVersion: 2
  tags:
  - 1
  - 2
  - 3
  - 4
  - 5
  - 6
  - 7
  - 8
  - FxTemporaire
  - 9
  - 10
  - 11
  - 12
  - 13
  - 14
  layers:
  - Default
  - TransparentFX
  - Ignore Raycast
  - 
  - Water
  - UI
  - 
  - 
  - 
  - 
  - 
  - 
  - 
  - 
  - 
  - 
  - 
  - 
  - 
  - 
  - 
  - 
  - 
  - 
  - 
  - 
  - 
  - 
  - 
  - 
  - 
  - 
  m_SortingLayers:
  - name: Default
    uniqueID: 0
    locked: 0
  - name: Rolet
    uniqueID: 864261673
    locked: 0
  - name: outros
    uniqueID: 2962668407
    locked: 0
